fitzRoy v1.7.0 on CRAN – plusSixOne
…
AFL Awards

A new fetch_awards() wrapper function has been added to retrieve data for three major AFL awards from Footywire.

fetch_awards_brownlow() - Returns player and team Brownlow vote tallies for a given season.

fetch_awards_allaustralian() - Returns the final All-Australian team (22 players) or the initial squad (44 players).

fetch_rising_star() - Returns Rising Star nominations and round-level performance stats.

# Player vote tallies
fitzRoy::fetch_awards(2024, award = "brownlow", type = "player")

# A tibble: 196 × 11
   Season Player          Team  Votes Votes_3 Votes_2 Votes_1 Players_With_Votes
    <dbl> <chr>           <chr> <dbl>   <int>   <int>   <int>              <int>
 1   2024 Patrick Cripps… Blues   163      45      12       4                  1
 2   2024 Nick Daicos     Magp…   134      38       7       6                  5
 3   2024 Zak Butters     Power   104      29       7       3                  2
 4   2024 Caleb Serong    Dock…   101      28       7       3                  1
 5   2024 Isaac Heeney    Swans   101      28       7       3                  1
 6   2024 Tom Green       Gian…    96      27       7       1                  4
 7   2024 Adam Treloar    Bull…    91      26       3       7                  3
 8   2024 Matt Rowell     Suns     90      25       6       3                  1
 9   2024 Errol Gulden    Swans    89      25       4       6                  1
10   2024 Jai Newcombe    Hawks    86      24       5       4                  1
# ℹ 186 more rows
# ℹ 3 more variables: Games_Polled <int>, Polled <chr>, V_G <chr>
…
fitzRoy::fetch_awards(2023, award = "allaustralian", type = "team")

# A tibble: 22 × 4
   Season Position Player        Team 
    <dbl> <chr>    <chr>         <chr>
 1   2023 FB       J Sicily      HAW  
 2   2023 FB       C Wilkie      STK  
 3   2023 FB       T Stewart     GEEL 
 4   2023 HB       J Sinclair    STK  
 5   2023 HB       D Moore       COLL 
 6   2023 HB       D Houston     PORT 
 7   2023 C        E Gulden      SYD  
 8   2023 C        M Bontempelli WB   
 9   2023 C        J Daicos      COLL 
10   2023 HF       C Rozee       PORT 
# ℹ 12 more rows

fitzRoy::fetch_awards(2023, award = "allaustralian", type = "squad")

# A tibble: 21 × 3
   Season Team        Player         
    <dbl> <chr>       <chr>          
 1   2023 Brisbane    Harris Andrews 
 2   2023 Brisbane    Joe Daniher    
 3   2023 Brisbane    Lachie Neale   
 4   2023 Carlton     Patrick Cripps 
 5   2023 Carlton     Jacob Weitering
 6   2023 Collingwood Jordan De Goey 
 7   2023 Collingwood Isaac Quaynor  
 8   2023 Essendon    Kyle Langford  
 9   2023 Essendon    Mason Redman   
10   2023 Fremantle   Luke Jackson   
# ℹ 11 more rows

# All nominations for the season
fitzRoy::fetch_awards(2024, award = "risingstar", type = "nominations")

# A tibble: 25 × 22
   Season Round Player      Team  Opponent Kicks Handballs Disposals Marks Goals
    <dbl> <dbl> <chr>       <chr> <chr>    <dbl>     <dbl>     <dbl> <dbl> <dbl>
 1   2024     0 M Roberts   Swans Demons      16         3        19     8     0
 2   2024     1 O Dempsey   Cats  Saints      13         2        15     7     3
 3   2024     2 G Wardlaw   Kang… Dockers     10        13        23     6     1
 4   2024     3 H Gallagher Bull… Eagles      12         4        16     7     2
 5   2024     4 S Darcy     Bull… Cats        10         2        12     3     3
 6   2024     5 H Reid      Eagl… Tigers      11        16        27     3     1
 7   2024     6 D Wilson    Sain… Bulldogs     8         7        15     4     1
 8   2024     7 J Rogers    Suns  Eagles      10        12        22     1     1
 9   2024     8 C Windsor   Demo… Cats        11         7        18     6     1
10   2024     9 C McKercher Kang… Suns        21         9        30     2     0
# ℹ 15 more rows
# ℹ 12 more variables: Behinds <dbl>, Tackles <dbl>, Hitouts <dbl>,
#   Goal_Assists <dbl>, Inside_50s <dbl>, Clearances <dbl>, Clangers <dbl>,
#   Rebound_50s <dbl>, Frees_For <dbl>, Frees_Against <dbl>, Supercoach <dbl>,
#   Fantasy <dbl>

# Stats for a specific round's nominees
fitzRoy::fetch_awards(2024, award = "risingstar", round_number = 5, type = "stats")

# A tibble: 34 × 24
   Season Round Player      Nomination Team      Opponent Result Kicks Handballs
    <dbl> <dbl> <chr>       <chr>      <chr>     <chr>    <chr>  <dbl>     <dbl>
 1   2024     5 H Reid      "R5"       Eagles    Tigers   Win 1…    11        16
 2   2024     5 D Wilson    "R6"       Saints    Giants   Loss …    16         3
 3   2024     5 L Nankervis "R13"      Crows     Blues    Win 1…     9         9
 4   2024     5 H Thomas    "R14"      Giants    Saints   Win 8…    10         7
 5   2024     5 B Drury     ""         Kangaroos Cats     Loss …    13         4
 6   2024     5 G Wardlaw   "R2"       Kangaroos Cats     Loss …    12         4
 7   2024     5 B Howes     ""         Demons    Lions    Loss …     8         7
 8   2024     5 W Graham    "R16"      Suns      Hawks    Win 1…     8         6
 9   2024     5 S Darcy     "R4"       Bulldogs  Bombers  Loss …     9         4
10   2024     5 O Dempsey   "R1"       Cats      Kangaro… Win 1…     8         5
# ℹ 24 more rows
# ℹ 15 more variables: Disposals <dbl>, Marks <dbl>, Goals <dbl>,
#   Behinds <dbl>, Tackles <dbl>, Hitouts <dbl>, Goal_Assists <dbl>,
#   Inside_50s <dbl>, Clearances <dbl>, Clangers <dbl>, Rebound_50s <dbl>,
#   Frees_For <dbl>, Frees_Against <dbl>, Fantasy <dbl>, Supercoach <dbl>

Out-of-contract players

fetch_outofcontract() returns a list of players whose contracts expire at the end of a given year — useful for team list analysis and end-of-season trade period research. Data is available from 2025 onwards.

fitzRoy::fetch_outofcontract(year = 2026)

# A tibble: 307 × 4
   Player          Years_Service Status                  Club    
   <chr>           <chr>         <chr>                   <chr>   
 1 Billy Dowling   4             Non-Free Agent          Adelaide
 2 Brayden Cook    6             Non-Free Agent          Adelaide
 3 Charlie Edwards 3             Non-Free Agent          Adelaide
 4 Chayce Jones    8             Restricted Free Agent   Adelaide
 5 Finnbar Maley   1             Non-Free Agent          Adelaide
 6 James Borlase   6             Unrestricted Free Agent Adelaide
 7 Jordon Butts    8             Restricted Free Agent   Adelaide
 8 Lachlan Sholl   8             Restricted Free Agent   Adelaide
 9 Luke Pedlar     6             Non-Free Agent          Adelaide
10 Mitchell Hinge  6             Unrestricted Free Agent Adelaide
# ℹ 297 more rows
…
# VFL Men's team stats
fitzRoy::fetch_team_stats(2024, source = "vflstats", comp = "VFLM")

ℹ Fetching team stats from VFLM 2024...

✔ Fetching team stats from VFLM 2024... [11.3s]

# A tibble: 21 × 16
   season summary type  comp  Team         Games Kicks Handballs Disposals Marks
    <dbl> <chr>   <chr> <chr> <chr>        <int> <int>     <int>     <int> <int>
 1   2024 totals  team  VFLM  Box Hill Ha…   431  4091      2557      6648  1921
 2   2024 totals  team  VFLM  Brisbane Li…   478  4802      2579      7381  2198
 3   2024 totals  team  VFLM  Carlton        413  3575      2504      6079  1487
 4   2024 totals  team  VFLM  Casey Demons   412  3558      2213      5771  1360
 5   2024 totals  team  VFLM  Coburg Lions   413  3589      2949      6538  1523
 6   2024 totals  team  VFLM  Collingwood…   405  3486      2363      5849  1465
 7   2024 totals  team  VFLM  Essendon VFL   409  3744      2671      6415  1572
 8   2024 totals  team  VFLM  Footscray B…   460  4136      3094      7230  1739
 9   2024 totals  team  VFLM  Frankston D…   460  3951      2329      6280  1513
10   2024 totals  team  VFLM  GWS Giants     401  3585      2266      5851  1504
# ℹ 11 more rows
# ℹ 6 more variables: Tackles <int>, Hitouts <int>, Fantasy <int>, Goals <int>,
#   Behinds <int>, Score <int>
…
