fitzRoy v1.3.0 on CRAN – plusSixOne
…
This update mostly contains bug fixes. You can read about them below.

Deprecated functions

All of the get_ family of functions are now formally following the deprecation lifecycle used in the {lifecycle} package. That is, there is now a formal warning for using these functions. The next version of fitzRoy will hard deprecate these functions, where calling them will return an error. Given these have been technically deprecated since v1.0.0, this is plenty of warning.

# install.packages("fitzRoy")
library(fitzRoy)

fitzRoy:::get_fixture(2020)

Warning: `get_fixture()` was deprecated in fitzRoy 1.0.0.
ℹ Please use `fetch_fixture()` instead.

# A tibble: 162 × 7
   Date                Season Season.Game Round Home.Team       Away.Team  Venue
   <dttm>               <dbl>       <int> <dbl> <chr>           <chr>      <chr>
 1 2020-03-19 19:40:00   2020           1     1 Richmond        Carlton    M.C.…
 2 2020-03-20 19:50:00   2020           2     1 Footscray       Collingwo… Dock…
 3 2020-03-21 14:10:00   2020           3     1 Essendon        Fremantle  Dock…
 4 2020-03-21 16:35:00   2020           4     1 Adelaide        Sydney     Adel…
 5 2020-03-21 18:40:00   2020           5     1 Gold Coast      Port Adel… Carr…
 6 2020-03-21 19:40:00   2020           6     1 GWS             Geelong    Sydn…
 7 2020-03-22 13:05:00   2020           7     1 North Melbourne St Kilda   Dock…
 8 2020-03-22 15:35:00   2020           8     1 Hawthorn        Brisbane … M.C.…
 9 2020-03-22 15:40:00   2020           9     1 West Coast      Melbourne  Pert…
10 2020-06-11 19:40:00   2020          10     2 Collingwood     Richmond   M.C.…
# … with 152 more rows
…
