plusSixOne - fitzRoy v1.0.0
…
The main changes are below. For further details have aread through the pkgdown site.

Highlights

New family of fetch_* functions

This new family of functions provides a simple and consistent API to the common types of AFL data. It also allows you to use the same interface to access data from any data source, meaning that it should require much less effort to switch between data sources or start a new analysis.

The basic structure of the fetch_* functions is that you specify the season, round_number, source and comp. Some examples are below but read through the extensive Main Fetch Functions vignette for a detailed run through.

An example with the fixture dataset.

fetch_fixture(season = 2021, source = "AFL", comp = "AFLM")

# A tibble: 207 × 56
      id provid…¹ utcSt…² status compS…³ compS…⁴ compS…⁵ compS…⁶ compS…⁷ round…⁸
   <int> <chr>    <chr>   <chr>    <int> <chr>   <chr>   <chr>     <int>   <int>
 1  2991 CD_M202… 2021-0… CONCL…      34 CD_S20… 2021 T… Premie…      27     461
 2  2986 CD_M202… 2021-0… CONCL…      34 CD_S20… 2021 T… Premie…      27     461
 3  2992 CD_M202… 2021-0… CONCL…      34 CD_S20… 2021 T… Premie…      27     461
 4  2993 CD_M202… 2021-0… CONCL…      34 CD_S20… 2021 T… Premie…      27     461
 5  2994 CD_M202… 2021-0… CONCL…      34 CD_S20… 2021 T… Premie…      27     461
 6  2987 CD_M202… 2021-0… CONCL…      34 CD_S20… 2021 T… Premie…      27     461
 7  2990 CD_M202… 2021-0… CONCL…      34 CD_S20… 2021 T… Premie…      27     461
 8  2989 CD_M202… 2021-0… CONCL…      34 CD_S20… 2021 T… Premie…      27     461
 9  2988 CD_M202… 2021-0… CONCL…      34 CD_S20… 2021 T… Premie…      27     461
10  2999 CD_M202… 2021-0… CONCL…      34 CD_S20… 2021 T… Premie…      27     462
# … with 197 more rows, 46 more variables: round.providerId <chr>,
#   round.abbreviation <chr>, round.name <chr>, round.roundNumber <int>,
#   round.byes <list>, home.team.id <int>, home.team.providerId <chr>,
#   home.team.name <chr>, home.team.abbreviation <chr>,
#   home.team.nickname <chr>, home.team.teamType <chr>,
#   home.team.club.id <int>, home.team.club.providerId <chr>,
#   home.team.club.name <chr>, home.team.club.abbreviation <chr>, …
…
The official AFL website has been added as a new data source for fitzRoy. This provides access to official statistics and generally includes a lot more data than other sources. It is the default source in any of the fetch_* family of functions.

Some good examples are shown in the new Getting started vignette

# The following will return the same. 
fetch_results(season = 2021, round_number = 1, source = "AFL", comp = "AFLM")
fetch_results_afl(season = 2021, round_number = 1, comp = "AFLM")

AFLW data

All data from the source “AFL” will also contain AFLW data for the first time. This includes fixtures, results, ladders, lineups and player stats. It is as simple as changing the comp argument to “AFLW” when using any of the fetch_* family of functions.

fetch_player_stats(season = 2021, round_number = 1, source = "AFL", comp = "AFLW")

# A tibble: 294 × 70
   providerId     utcSt…¹ status compS…² round…³ round…⁴ venue…⁵ home.…⁶ home.…⁷
   <chr>          <chr>   <chr>  <chr>   <chr>     <int> <chr>   <chr>   <chr>  
 1 CD_M202126401… 2021-0… CONCL… AFLW S… Round 1       1 Ikon P… Carlton Carlton
 2 CD_M202126401… 2021-0… CONCL… AFLW S… Round 1       1 Ikon P… Carlton Carlton
 3 CD_M202126401… 2021-0… CONCL… AFLW S… Round 1       1 Ikon P… Carlton Carlton
 4 CD_M202126401… 2021-0… CONCL… AFLW S… Round 1       1 Ikon P… Carlton Carlton
 5 CD_M202126401… 2021-0… CONCL… AFLW S… Round 1       1 Ikon P… Carlton Carlton
 6 CD_M202126401… 2021-0… CONCL… AFLW S… Round 1       1 Ikon P… Carlton Carlton
 7 CD_M202126401… 2021-0… CONCL… AFLW S… Round 1       1 Ikon P… Carlton Carlton
 8 CD_M202126401… 2021-0… CONCL… AFLW S… Round 1       1 Ikon P… Carlton Carlton
 9 CD_M202126401… 2021-0… CONCL… AFLW S… Round 1       1 Ikon P… Carlton Carlton
10 CD_M202126401… 2021-0… CONCL… AFLW S… Round 1       1 Ikon P… Carlton Carlton
# … with 284 more rows, 61 more variables: away.team.name <chr>,
#   away.team.club.name <chr>, player.jumperNumber <int>,
#   player.photoURL <chr>, player.player.position <chr>,
#   player.player.player.playerId <chr>, player.player.player.captain <lgl>,
#   player.player.player.playerJumperNumber <int>,
#   player.player.player.givenName <chr>, player.player.player.surname <chr>,
#   teamId <chr>, gamesPlayed <lgl>, timeOnGroundPercentage <dbl>, …
…
